…
为防止包之间的函数冲突，使用`conflicted`来prefer到`dplyr`中的`filter`。


```r
library(conflicted)
conflict_prefer("filter", "dplyr")

cfps2010family %>%
  select(urban, starts_with("fk2_s"))%>%
  filter(urban == 0)
```

```
## # A tibble: 7,694 × 6
##    urban     fk2_s_1     fk2_s_2     fk2_s_3     fk2_s_4     fk2_s_5    
##    <dbl+lbl> <dbl+lbl>   <dbl+lbl>   <dbl+lbl>   <dbl+lbl>   <dbl+lbl>  
##  1 0 [乡村]   4 [果园]   -8 [不适用] -8 [不适用] -8 [不适用] -8 [不适用]
##  2 0 [乡村]   2 [旱地]   -8 [不适用] -8 [不适用] -8 [不适用] -8 [不适用]
##  3 0 [乡村]   4 [果园]   -8 [不适用] -8 [不适用] -8 [不适用] -8 [不适用]
##  4 0 [乡村]   4 [果园]   -8 [不适用] -8 [不适用] -8 [不适用] -8 [不适用]
##  5 0 [乡村]  -8 [不适用] -8 [不适用] -8 [不适用] -8 [不适用] -8 [不适用]
##  6 0 [乡村]  -8 [不适用] -8 [不适用] -8 [不适用] -8 [不适用] -8 [不适用]
##  7 0 [乡村]  -8 [不适用] -8 [不适用] -8 [不适用] -8 [不适用] -8 [不适用]
##  8 0 [乡村]   6 [池塘]   -8 [不适用] -8 [不适用] -8 [不适用] -8 [不适用]
##  9 0 [乡村]   4 [果园]   -8 [不适用] -8 [不适用] -8 [不适用] -8 [不适用]
## 10 0 [乡村]  -8 [不适用] -8 [不适用] -8 [不适用] -8 [不适用] -8 [不适用]
## # ℹ 7,684 more rows
```



先找出有经营土地的家户：并不考虑是否是自己拥有还是转租入。


```r
a <- cfps2010family %>%
  select(fid,urban, starts_with("fk201_a")) %>%
  filter_at(vars(starts_with("fk201_a")), any_vars(. > 0))
a
```

```
## # A tibble: 7,688 × 8
##    fid       urban   fk201_a_1 fk201_a_2 fk201_a_3 fk201_a_4 fk201_a_5 fk201_a_6
##    <dbl+lbl> <dbl+l> <dbl+lbl> <dbl+lbl> <dbl+lbl> <dbl+lbl> <dbl+lbl> <dbl+lbl>
##  1 110007    1 [城… -8 [不适…  2.5    … -8 [不适… -8 [不适… -8 [不适… -8 [不适…
##  2 120033    1 [城… -8 [不适… -8 [不适… -8 [不适…  0.900  … -8 [不适… -8 [不适…
##  3 120073    0 [乡… -8 [不适… -8 [不适… -8 [不适…  5.10   … -8 [不适… -8 [不适…
##  4 120074    0 [乡… -8 [不适…  1.80   … -8 [不适… -8 [不适… -8 [不适… -8 [不适…
##  5 120076    0 [乡… -8 [不适… -8 [不适… -8 [不适…  6      … -8 [不适… -8 [不适…
##  6 120080    0 [乡… -8 [不适… -8 [不适… -8 [不适… -8 [不适… -8 [不适… 38      …
##  7 120081    0 [乡… -8 [不适… -8 [不适… -8 [不适…  4      … -8 [不适… -8 [不适…
##  8 120084    0 [乡… -8 [不适… -8 [不适… -8 [不适…  1.5    … -8 [不适… -8 [不适…
##  9 120087    0 [乡… -8 [不适… -8 [不适… -8 [不适…  3      … -8 [不适… -8 [不适…
## 10 120088    0 [乡… -8 [不适…  1.5    … -8 [不适… -8 [不适… -8 [不适… -8 [不适…
## # ℹ 7,678 more rows
```
…
```
## Warning: `funs()` was deprecated in dplyr 0.8.0.
## ℹ Please use a list of either functions or lambdas:
## 
## # Simple named list: list(mean = mean, median = median)
## 
## # Auto named with `tibble::lst()`: tibble::lst(mean, median)
## 
## # Using lambdas list(~ mean(., trim = .2), ~ median(., na.rm = TRUE))
## Call `lifecycle::last_lifecycle_warnings()` to see where this warning was
## generated.
```

```
## # A tibble: 7,688 × 8
##    fid       urban   fk201_a_1 fk201_a_2 fk201_a_3 fk201_a_4 fk201_a_5 fk201_a_6
##    <dbl+lbl> <dbl+l> <dbl+lbl> <dbl+lbl> <dbl+lbl> <dbl+lbl> <dbl+lbl> <dbl+lbl>
##  1 110007    1 [城… 0         2.5       0         0         0          0       
##  2 120033    1 [城… 0         0         0         0.900     0          0       
##  3 120073    0 [乡… 0         0         0         5.10      0          0       
##  4 120074    0 [乡… 0         1.80      0         0         0          0       
##  5 120076    0 [乡… 0         0         0         6         0          0       
##  6 120080    0 [乡… 0         0         0         0         0         38       
##  7 120081    0 [乡… 0         0         0         4         0          0       
##  8 120084    0 [乡… 0         0         0         1.5       0          0       
##  9 120087    0 [乡… 0         0         0         3         0          0       
## 10 120088    0 [乡… 0         1.5       0         0         0          0       
## # ℹ 7,678 more rows
```
…
```r
a
```

```
## # A tibble: 6,093 × 12
##    fid       urban   fk201_a_1 fk201_a_2 fk201_a_3 fk201_a_4 fk201_a_5 fk201_a_6
##    <dbl+lbl> <dbl+l> <dbl+lbl> <dbl+lbl> <dbl+lbl> <dbl+lbl> <dbl+lbl> <dbl+lbl>
##  1 110007    1 [城… 0         2.5       0         0         0         0        
##  2 120033    1 [城… 0         0         0         0.900     0         0        
##  3 120074    0 [乡… 0         1.80      0         0         0         0        
##  4 120075    0 [乡… 0         0         0         0         0         0        
##  5 120076    0 [乡… 0         0         0         6         0         0        
##  6 120081    0 [乡… 0         0         0         4         0         0        
##  7 120084    0 [乡… 0         0         0         1.5       0         0        
##  8 120087    0 [乡… 0         0         0         3         0         0        
##  9 120088    0 [乡… 0         1.5       0         0         0         0        
## 10 120090    0 [乡… 0         0         0         4.5       0         0        
## # ℹ 6,083 more rows
## # ℹ 4 more variables: fk3 <dbl+lbl>, fk4 <dbl+lbl>, fe1 <dbl+lbl>,
## #   revenue <dbl>
```
…
我们计算农业生产效率的方法有很多这里主要参考的是一些主流的做法：将单位面积纯利润作为效率的衡量指标


```r
a%>%
  mutate(landsum = rowSums(.[2:7]))%>%
  filter(landsum>0)%>%
  mutate(rates = revenue/landsum)->a1
a1
```

```
## # A tibble: 6,048 × 14
##    fid       urban   fk201_a_1 fk201_a_2 fk201_a_3 fk201_a_4 fk201_a_5 fk201_a_6
##    <dbl+lbl> <dbl+l> <dbl+lbl> <dbl+lbl> <dbl+lbl> <dbl+lbl> <dbl+lbl> <dbl+lbl>
##  1 110007    1 [城… 0         2.5       0         0         0         0        
##  2 120033    1 [城… 0         0         0         0.900     0         0        
##  3 120074    0 [乡… 0         1.80      0         0         0         0        
##  4 120076    0 [乡… 0         0         0         6         0         0        
##  5 120081    0 [乡… 0         0         0         4         0         0        
##  6 120084    0 [乡… 0         0         0         1.5       0         0        
##  7 120087    0 [乡… 0         0         0         3         0         0        
##  8 120088    0 [乡… 0         1.5       0         0         0         0        
##  9 120090    0 [乡… 0         0         0         4.5       0         0        
## 10 120091    0 [乡… 0         0         0         4         0         0        
## # ℹ 6,038 more rows
## # ℹ 6 more variables: fk3 <dbl+lbl>, fk4 <dbl+lbl>, fe1 <dbl+lbl>,
## #   revenue <dbl>, landsum <dbl>, rates <dbl>
```
…
```r
library(conflicted)
conflict_prefer('filter',"dplyr")
a1%>%
  filter(fe1!=5)->a2
a2$fe1[a2$fe1==3] <- 0
a2%>%
  select(rates,fe1)
```

```
## # A tibble: 6,017 × 2
##    rates fe1      
##    <dbl> <dbl+lbl>
##  1  371. 0        
##  2 7632. 0        
##  3  667. 0        
##  4 3000  1 [有]   
##  5 6500  0        
##  6 2000  0        
##  7 6667. 0        
##  8 3333. 0        
##  9 4444. 0        
## 10 6250  0        
## # ℹ 6,007 more rows
```
…
