…
```r
chfs_hh2013 <- read_dta("/Volumes/Expansion/micro-base-data/chfs/CHFS_2013/chfs2013_hh_20191120_version14.dta")
chfs_hh2013%>%get_var_label()
```

```
## # A tibble: 2,184 × 2
##    name      label                 
##    <chr>     <chr>                 
##  1 hhid_2011 household id in 2011  
##  2 hhid_2013 household id in 2013  
##  3 a2000a    居住在一起家庭成员个数
##  4 a2000b    外出家庭成员个数      
##  5 a1001     地址是否正确          
##  6 a1002     是否居民住宅          
##  7 a1003     住宅户数              
##  8 a1007     主要经济活动          
##  9 a1008     是否常住本市          
## 10 a1009     有无外国国籍          
## # ℹ 2,174 more rows
```
…
